*** 2017-08-29 15:18:50.036 idempiere Log (CLogFile) ***
15:18:50.035 Setup.<init>: iDempiere(r) Release 4.1_2016-10-31 -Smart Suite ERP, CRM and SCM- (c) 1999-2016 iDempiere(r); Implementation: iDempiere - Supported by iDempiere community [1]
15:18:50.262 ConfigurationData.load: C:\idempiere\myexperiment\idempiereEnv.properties [1]
15:18:54.375 Config.test: OK: JavaHome=C:\Program Files\Java\jre1.8.0_131 [29]
15:18:54.375 Config.test: OK: Version=1.8.0_131 [29]
15:18:54.376 ConfigurationData.testAdempiere: OK: AdempiereHome = C:\idempiere\myexperiment [29]
15:18:54.377 KeyStoreMgt.<init>: C:\idempiere\myexperiment\jettyhome/etc\keystore [29]
15:18:54.381 ConfigurationData.testAdempiere: OK: KeyStore = C:\idempiere\myexperiment\jettyhome/etc\keystore [29]
15:18:54.382 Config.test: OK: AppsServer = localhost/127.0.0.1 [29]
15:18:55.394 Config.test: OK: Web Port = 8080 [29]
15:18:56.828 Config.test: OK: SSL Port = 8443 [29]
15:18:56.829 ConfigPostgreSQL.test: OK: Database Server = localhost/127.0.0.1 [29]
15:18:56.830 ConfigPostgreSQL.test: OK: Database Port = 5432 [29]
15:18:56.934 ConfigPostgreSQL.test: OK: System Connection = jdbc:postgresql://localhost:5432/template1 [29]
15:18:56.955 ConfigPostgreSQL.test: OK: Database User = adempiere [29]
15:18:56.958-----------> ConfigurationData.testMail: Not valid:  - Illegal address [29]
15:19:00.501 Config.test: OK: JavaHome=C:\Program Files\Java\jre1.8.0_131 [30]
15:19:00.501 Config.test: OK: Version=1.8.0_131 [30]
15:19:00.502 ConfigurationData.testAdempiere: OK: AdempiereHome = C:\idempiere\myexperiment [30]
15:19:00.504 KeyStoreMgt.<init>: C:\idempiere\myexperiment\jettyhome/etc\keystore [30]
15:19:00.505 ConfigurationData.testAdempiere: OK: KeyStore = C:\idempiere\myexperiment\jettyhome/etc\keystore [30]
15:19:00.510 Config.test: OK: AppsServer = localhost/127.0.0.1 [30]
15:19:01.517 Config.test: OK: Web Port = 8080 [30]
15:19:02.518 Config.test: OK: SSL Port = 8443 [30]
15:19:02.519 ConfigPostgreSQL.test: OK: Database Server = localhost/127.0.0.1 [30]
15:19:02.519 ConfigPostgreSQL.test: OK: Database Port = 5432 [30]
15:19:02.543 ConfigPostgreSQL.test: OK: System Connection = jdbc:postgresql://localhost:5432/template1 [30]
15:19:02.563 ConfigPostgreSQL.test: OK: Database User = adempiere [30]
15:19:02.564-----------> ConfigurationData.testMail: Not valid:  - Illegal address [30]
15:19:02.568 Ini.loadProperties: C:\idempiere\myexperiment\idempiere.properties #28 [26]
15:19:02.576 ConfigurationData.save: C:\idempiere\myexperiment\idempiereEnv.properties [26]

*** 2017-08-29 15:19:05.175 idempiere Log (CLogFile) ***
